%YAML 1.1
%TAG !u! tag:unity3d.com,2011:
--- !u!1001 &100100000
Prefab:
  m_ObjectHideFlags: 1
  serializedVersion: 2
  m_Modification:
    m_TransformParent: {fileID: 0}
    m_Modifications: []
    m_RemovedComponents: []
  m_ParentPrefab: {fileID: 0}
  m_RootGameObject: {fileID: 1421775358537972}
  m_IsPrefabParent: 1
--- !u!1 &1373438926891438
GameObject:
  m_ObjectHideFlags: 0
  m_PrefabParentObject: {fileID: 0}
  m_PrefabInternal: {fileID: 100100000}
  serializedVersion: 5
  m_Component:
  - component: {fileID: 4331471867731166}
  - component: {fileID: 8195094281389196200}
  - component: {fileID: 3664157343055215592}
  m_Layer: 31
  m_Name: Layer1
  m_TagString: Untagged
  m_Icon: {fileID: 0}
  m_NavMeshLayer: 0
  m_StaticEditorFlags: 0
  m_IsActive: 1
--- !u!1 &1421775358537972
GameObject:
  m_ObjectHideFlags: 0
  m_PrefabParentObject: {fileID: 0}
  m_PrefabInternal: {fileID: 100100000}
  serializedVersion: 5
  m_Component:
  - component: {fileID: 4104369197138108}
  - component: {fileID: 2569400265295897080}
  m_Layer: 31
  m_Name: Terrain Palette
  m_TagString: Untagged
  m_Icon: {fileID: 0}
  m_NavMeshLayer: 0
  m_StaticEditorFlags: 0
  m_IsActive: 1
--- !u!4 &4104369197138108
Transform:
  m_ObjectHideFlags: 1
  m_PrefabParentObject: {fileID: 0}
  m_PrefabInternal: {fileID: 100100000}
  m_GameObject: {fileID: 1421775358537972}
  m_LocalRotation: {x: 0, y: 0, z: 0, w: 1}
  m_LocalPosition: {x: 0, y: 0, z: 0}
  m_LocalScale: {x: 1, y: 1, z: 1}
  m_Children:
  - {fileID: 4331471867731166}
  m_Father: {fileID: 0}
  m_RootOrder: 0
  m_LocalEulerAnglesHint: {x: 0, y: 0, z: 0}
--- !u!4 &4331471867731166
Transform:
  m_ObjectHideFlags: 1
  m_PrefabParentObject: {fileID: 0}
  m_PrefabInternal: {fileID: 100100000}
  m_GameObject: {fileID: 1373438926891438}
  m_LocalRotation: {x: -0, y: -0, z: -0, w: 1}
  m_LocalPosition: {x: 0, y: 0, z: 0}
  m_LocalScale: {x: 1, y: 1, z: 1}
  m_Children: []
  m_Father: {fileID: 4104369197138108}
  m_RootOrder: 0
  m_LocalEulerAnglesHint: {x: 0, y: 0, z: 0}
--- !u!114 &114995125160884632
MonoBehaviour:
  m_ObjectHideFlags: 0
  m_PrefabParentObject: {fileID: 0}
  m_PrefabInternal: {fileID: 0}
  m_GameObject: {fileID: 0}
  m_Enabled: 1
  m_EditorHideFlags: 1
  m_Script: {fileID: 12395, guid: 0000000000000000e000000000000000, type: 0}
  m_Name: Palette Settings
  m_EditorClassIdentifier: 
  cellSizing: 0
--- !u!156049354 &2569400265295897080
Grid:
  m_ObjectHideFlags: 1
  m_PrefabParentObject: {fileID: 0}
  m_PrefabInternal: {fileID: 100100000}
  m_GameObject: {fileID: 1421775358537972}
  m_Enabled: 1
  m_CellSize: {x: 1, y: 1, z: 0}
  m_CellGap: {x: 0, y: 0, z: 0}
  m_CellLayout: 0
  m_CellSwizzle: 0
--- !u!483693784 &3664157343055215592
TilemapRenderer:
  m_ObjectHideFlags: 1
  m_PrefabParentObject: {fileID: 0}
  m_PrefabInternal: {fileID: 100100000}
  m_GameObject: {fileID: 1373438926891438}
  m_Enabled: 0
  m_CastShadows: 0
  m_ReceiveShadows: 0
  m_DynamicOccludee: 0
  m_MotionVectors: 1
  m_LightProbeUsage: 0
  m_ReflectionProbeUsage: 0
  m_Materials:
  - {fileID: 10754, guid: 0000000000000000f000000000000000, type: 0}
  m_StaticBatchInfo:
    firstSubMesh: 0
    subMeshCount: 0
  m_StaticBatchRoot: {fileID: 0}
  m_ProbeAnchor: {fileID: 0}
  m_LightProbeVolumeOverride: {fileID: 0}
  m_ScaleInLightmap: 1
  m_PreserveUVs: 0
  m_IgnoreNormalsForChartDetection: 0
  m_ImportantGI: 0
  m_StitchLightmapSeams: 0
  m_SelectedEditorRenderState: 0
  m_MinimumChartSize: 4
  m_AutoUVMaxDistance: 0.5
  m_AutoUVMaxAngle: 89
  m_LightmapParameters: {fileID: 0}
  m_SortingLayerID: 0
  m_SortingLayer: 0
  m_SortingOrder: 0
  m_ChunkSize: {x: 32, y: 32, z: 32}
  m_MaxChunkCount: 16
  m_MaxFrameAge: 16
  m_SortOrder: 0
  m_MaskInteraction: 0
--- !u!1839735485 &8195094281389196200
Tilemap:
  m_ObjectHideFlags: 1
  m_PrefabParentObject: {fileID: 0}
  m_PrefabInternal: {fileID: 100100000}
  m_GameObject: {fileID: 1373438926891438}
  m_Enabled: 1
  m_Tiles:
  - first: {x: 7, y: -4, z: 0}
    second:
      m_TileIndex: 26
      m_TileSpriteIndex: 26
      m_TileMatrixIndex: 0
      m_TileColorIndex: 0
      m_ObjectToInstantiate: {fileID: 0}
      m_TileFlags: 1
      m_ColliderType: 2
  - first: {x: 6, y: -3, z: 0}
    second:
      m_TileIndex: 20
      m_TileSpriteIndex: 20
      m_TileMatrixIndex: 0
      m_TileColorIndex: 0
      m_ObjectToInstantiate: {fileID: 0}
      m_TileFlags: 1
      m_ColliderType: 2
  - first: {x: 7, y: -3, z: 0}
    second:
      m_TileIndex: 25
      m_TileSpriteIndex: 25
      m_TileMatrixIndex: 0
      m_TileColorIndex: 0
      m_ObjectToInstantiate: {fileID: 0}
      m_TileFlags: 1
      m_ColliderType: 2
  - first: {x: 8, y: -3, z: 0}
    second:
      m_TileIndex: 21
      m_TileSpriteIndex: 21
      m_TileMatrixIndex: 0
      m_TileColorIndex: 0
      m_ObjectToInstantiate: {fileID: 0}
      m_TileFlags: 1
      m_ColliderType: 2
  - first: {x: -2, y: -2, z: 0}
    second:
      m_TileIndex: 6
      m_TileSpriteIndex: 6
      m_TileMatrixIndex: 0
      m_TileColorIndex: 0
      m_ObjectToInstantiate: {fileID: 0}
      m_TileFlags: 1
      m_ColliderType: 2
  - first: {x: -1, y: -2, z: 0}
    second:
      m_TileIndex: 7
      m_TileSpriteIndex: 7
      m_TileMatrixIndex: 0
      m_TileColorIndex: 0
      m_ObjectToInstantiate: {fileID: 0}
      m_TileFlags: 1
      m_ColliderType: 2
  - first: {x: 0, y: -2, z: 0}
    second:
      m_TileIndex: 8
      m_TileSpriteIndex: 8
      m_TileMatrixIndex: 0
      m_TileColorIndex: 0
      m_ObjectToInstantiate: {fileID: 0}
      m_TileFlags: 1
      m_ColliderType: 2
  - first: {x: 2, y: -2, z: 0}
    second:
      m_TileIndex: 12
      m_TileSpriteIndex: 12
      m_TileMatrixIndex: 0
      m_TileColorIndex: 0
      m_ObjectToInstantiate: {fileID: 0}
      m_TileFlags: 1
      m_ColliderType: 2
  - first: {x: 4, y: -2, z: 0}
    second:
      m_TileIndex: 13
      m_TileSpriteIndex: 13
      m_TileMatrixIndex: 0
      m_TileColorIndex: 0
      m_ObjectToInstantiate: {fileID: 0}
      m_TileFlags: 1
      m_ColliderType: 2
  - first: {x: 6, y: -2, z: 0}
    second:
      m_TileIndex: 23
      m_TileSpriteIndex: 23
      m_TileMatrixIndex: 0
      m_TileColorIndex: 0
      m_ObjectToInstantiate: {fileID: 0}
      m_TileFlags: 1
      m_ColliderType: 2
  - first: {x: 7, y: -2, z: 0}
    second:
      m_TileIndex: 22
      m_TileSpriteIndex: 22
      m_TileMatrixIndex: 0
      m_TileColorIndex: 0
      m_ObjectToInstantiate: {fileID: 0}
      m_TileFlags: 1
      m_ColliderType: 2
  - first: {x: 8, y: -2, z: 0}
    second:
      m_TileIndex: 24
      m_TileSpriteIndex: 24
      m_TileMatrixIndex: 0
      m_TileColorIndex: 0
      m_ObjectToInstantiate: {fileID: 0}
      m_TileFlags: 1
      m_ColliderType: 2
  - first: {x: -2, y: -1, z: 0}
    second:
      m_TileIndex: 3
      m_TileSpriteIndex: 3
      m_TileMatrixIndex: 0
      m_TileColorIndex: 0
      m_ObjectToInstantiate: {fileID: 0}
      m_TileFlags: 1
      m_ColliderType: 2
  - first: {x: -1, y: -1, z: 0}
    second:
      m_TileIndex: 4
      m_TileSpriteIndex: 4
      m_TileMatrixIndex: 0
      m_TileColorIndex: 0
      m_ObjectToInstantiate: {fileID: 0}
      m_TileFlags: 1
      m_ColliderType: 2
  - first: {x: 0, y: -1, z: 0}
    second:
      m_TileIndex: 5
      m_TileSpriteIndex: 5
      m_TileMatrixIndex: 0
      m_TileColorIndex: 0
      m_ObjectToInstantiate: {fileID: 0}
      m_TileFlags: 1
      m_ColliderType: 2
  - first: {x: 6, y: -1, z: 0}
    second:
      m_TileIndex: 17
      m_TileSpriteIndex: 17
      m_TileMatrixIndex: 0
      m_TileColorIndex: 0
      m_ObjectToInstantiate: {fileID: 0}
      m_TileFlags: 1
      m_ColliderType: 2
  - first: {x: 7, y: -1, z: 0}
    second:
      m_TileIndex: 18
      m_TileSpriteIndex: 18
      m_TileMatrixIndex: 0
      m_TileColorIndex: 0
      m_ObjectToInstantiate: {fileID: 0}
      m_TileFlags: 1
      m_ColliderType: 2
  - first: {x: 8, y: -1, z: 0}
    second:
      m_TileIndex: 19
      m_TileSpriteIndex: 19
      m_TileMatrixIndex: 0
      m_TileColorIndex: 0
      m_ObjectToInstantiate: {fileID: 0}
      m_TileFlags: 1
      m_ColliderType: 2
  - first: {x: 10, y: -1, z: 0}
    second:
      m_TileIndex: 28
      m_TileSpriteIndex: 28
      m_TileMatrixIndex: 0
      m_TileColorIndex: 0
      m_ObjectToInstantiate: {fileID: 0}
      m_TileFlags: 1
      m_ColliderType: 2
  - first: {x: -2, y: 0, z: 0}
    second:
      m_TileIndex: 0
      m_TileSpriteIndex: 0
      m_TileMatrixIndex: 0
      m_TileColorIndex: 0
      m_ObjectToInstantiate: {fileID: 0}
      m_TileFlags: 1
      m_ColliderType: 2
  - first: {x: -1, y: 0, z: 0}
    second:
      m_TileIndex: 1
      m_TileSpriteIndex: 1
      m_TileMatrixIndex: 0
      m_TileColorIndex: 0
      m_ObjectToInstantiate: {fileID: 0}
      m_TileFlags: 1
      m_ColliderType: 2
  - first: {x: 0, y: 0, z: 0}
    second:
      m_TileIndex: 2
      m_TileSpriteIndex: 2
      m_TileMatrixIndex: 0
      m_TileColorIndex: 0
      m_ObjectToInstantiate: {fileID: 0}
      m_TileFlags: 1
      m_ColliderType: 2
  - first: {x: 2, y: 0, z: 0}
    second:
      m_TileIndex: 10
      m_TileSpriteIndex: 10
      m_TileMatrixIndex: 0
      m_TileColorIndex: 0
      m_ObjectToInstantiate: {fileID: 0}
      m_TileFlags: 1
      m_ColliderType: 2
  - first: {x: 3, y: 0, z: 0}
    second:
      m_TileIndex: 9
      m_TileSpriteIndex: 9
      m_TileMatrixIndex: 0
      m_TileColorIndex: 0
      m_ObjectToInstantiate: {fileID: 0}
      m_TileFlags: 1
      m_ColliderType: 2
  - first: {x: 4, y: 0, z: 0}
    second:
      m_TileIndex: 11
      m_TileSpriteIndex: 11
      m_TileMatrixIndex: 0
      m_TileColorIndex: 0
      m_ObjectToInstantiate: {fileID: 0}
      m_TileFlags: 1
      m_ColliderType: 2
  - first: {x: 6, y: 0, z: 0}
    second:
      m_TileIndex: 16
      m_TileSpriteIndex: 16
      m_TileMatrixIndex: 0
      m_TileColorIndex: 0
      m_ObjectToInstantiate: {fileID: 0}
      m_TileFlags: 1
      m_ColliderType: 2
  - first: {x: 7, y: 0, z: 0}
    second:
      m_TileIndex: 15
      m_TileSpriteIndex: 15
      m_TileMatrixIndex: 0
      m_TileColorIndex: 0
      m_ObjectToInstantiate: {fileID: 0}
      m_TileFlags: 1
      m_ColliderType: 2
  - first: {x: 8, y: 0, z: 0}
    second:
      m_TileIndex: 14
      m_TileSpriteIndex: 14
      m_TileMatrixIndex: 0
      m_TileColorIndex: 0
      m_ObjectToInstantiate: {fileID: 0}
      m_TileFlags: 1
      m_ColliderType: 2
  - first: {x: 10, y: 0, z: 0}
    second:
      m_TileIndex: 27
      m_TileSpriteIndex: 27
      m_TileMatrixIndex: 0
      m_TileColorIndex: 0
      m_ObjectToInstantiate: {fileID: 0}
      m_TileFlags: 1
      m_ColliderType: 2
  - first: {x: -2, y: 1, z: 0}
    second:
      m_TileIndex: 29
      m_TileSpriteIndex: 29
      m_TileMatrixIndex: 0
      m_TileColorIndex: 0
      m_ObjectToInstantiate: {fileID: 0}
      m_TileFlags: 1
      m_ColliderType: 2
  - first: {x: -1, y: 1, z: 0}
    second:
      m_TileIndex: 30
      m_TileSpriteIndex: 30
      m_TileMatrixIndex: 0
      m_TileColorIndex: 0
      m_ObjectToInstantiate: {fileID: 0}
      m_TileFlags: 1
      m_ColliderType: 2
  - first: {x: 0, y: 1, z: 0}
    second:
      m_TileIndex: 31
      m_TileSpriteIndex: 31
      m_TileMatrixIndex: 0
      m_TileColorIndex: 0
      m_ObjectToInstantiate: {fileID: 0}
      m_TileFlags: 1
      m_ColliderType: 2
  m_AnimatedTiles: {}
  m_TileAssetArray:
  - m_RefCount: 1
    m_Data: {fileID: 11400000, guid: 2247771ff03596a45a87f193c3cab270, type: 2}
  - m_RefCount: 1
    m_Data: {fileID: 11400000, guid: 259ef996dd7a9c84982c97ea6119f973, type: 2}
  - m_RefCount: 1
    m_Data: {fileID: 11400000, guid: c9f2878b5dae1614d93c6ead5afbf9ae, type: 2}
  - m_RefCount: 1
    m_Data: {fileID: 11400000, guid: 9d9cf2d5adb8baf4ab6212697fce27f6, type: 2}
  - m_RefCount: 1
    m_Data: {fileID: 11400000, guid: 561f698a42c5fb94389cea044de070d4, type: 2}
  - m_RefCount: 1
    m_Data: {fileID: 11400000, guid: b28aeb3e8997bf34eb9894711d16c2e9, type: 2}
  - m_RefCount: 1
    m_Data: {fileID: 11400000, guid: 0760c73680d46614fb5c47f1931902fb, type: 2}
  - m_RefCount: 1
    m_Data: {fileID: 11400000, guid: 87d9b3dffed416e45b7a50cfe5e5c9a4, type: 2}
  - m_RefCount: 1
    m_Data: {fileID: 11400000, guid: d87df50da90ad434695df8c0eb1b2a95, type: 2}
  - m_RefCount: 1
    m_Data: {fileID: 11400000, guid: bc0e2df4e5575264bac46c192da709e3, type: 2}
  - m_RefCount: 1
    m_Data: {fileID: 11400000, guid: 7a171ebb363cb12469e55afbb29b6268, type: 2}
  - m_RefCount: 1
    m_Data: {fileID: 11400000, guid: 01e4ad952ba488d448f43d8e92926163, type: 2}
  - m_RefCount: 1
    m_Data: {fileID: 11400000, guid: 858e56097c75c3b45897bee9258b47c9, type: 2}
  - m_RefCount: 1
    m_Data: {fileID: 11400000, guid: 5814b0ebec5332446a3a0089b03743dd, type: 2}
  - m_RefCount: 1
    m_Data: {fileID: 11400000, guid: 43355ed2d07050242821f1300d7ecabe, type: 2}
  - m_RefCount: 1
    m_Data: {fileID: 11400000, guid: fa6c678ed6aaf0646bd93baa9ea70944, type: 2}
  - m_RefCount: 1
    m_Data: {fileID: 11400000, guid: 73541b9333792414d81be8f5463c79c8, type: 2}
  - m_RefCount: 1
    m_Data: {fileID: 11400000, guid: 054f9f029e6deeb48abbdb11f600c207, type: 2}
  - m_RefCount: 1
    m_Data: {fileID: 11400000, guid: 717be1402e2d78c43bc1c117de615f14, type: 2}
  - m_RefCount: 1
    m_Data: {fileID: 11400000, guid: e781bd9d1e0a4d043a96d7a826854610, type: 2}
  - m_RefCount: 1
    m_Data: {fileID: 11400000, guid: 907c17c3fe57c5d45a742c3b7d5e2e6f, type: 2}
  - m_RefCount: 1
    m_Data: {fileID: 11400000, guid: d2ed977f689b5e94b88296c0883e463a, type: 2}
  - m_RefCount: 1
    m_Data: {fileID: 11400000, guid: 2dbfb038a489ed442891390eacc7924b, type: 2}
  - m_RefCount: 1
    m_Data: {fileID: 11400000, guid: 961ec9afcbfe9de419ef4d38c031ae6e, type: 2}
  - m_RefCount: 1
    m_Data: {fileID: 11400000, guid: 1b79147c0d0126342bb5f1baae9a1e6b, type: 2}
  - m_RefCount: 1
    m_Data: {fileID: 11400000, guid: efc6ee1d0423e8e4f9413ce9c6df35d8, type: 2}
  - m_RefCount: 1
    m_Data: {fileID: 11400000, guid: 857461f160f1c13468c799814179605b, type: 2}
  - m_RefCount: 1
    m_Data: {fileID: 11400000, guid: 700aefcc2a5093746a6e3be5df0deb0b, type: 2}
  - m_RefCount: 1
    m_Data: {fileID: 11400000, guid: 1d83b5a72b724bd49a58c68f049b5c5f, type: 2}
  - m_RefCount: 1
    m_Data: {fileID: 11400000, guid: 2f8eb26fedd9ba74394a146dd3d70329, type: 2}
  - m_RefCount: 1
    m_Data: {fileID: 11400000, guid: 8e0e54af5fac873418ed6a342e58ad89, type: 2}
  - m_RefCount: 1
    m_Data: {fileID: 11400000, guid: aa2664a2be043974082e8d63ae59454d, type: 2}
  m_TileSpriteArray:
  - m_RefCount: 1
    m_Data: {fileID: 21300030, guid: 4eea876403ceb3247bdabd7cdf855383, type: 3}
  - m_RefCount: 1
    m_Data: {fileID: 21300032, guid: 4eea876403ceb3247bdabd7cdf855383, type: 3}
  - m_RefCount: 1
    m_Data: {fileID: 21300034, guid: 4eea876403ceb3247bdabd7cdf855383, type: 3}
  - m_RefCount: 1
    m_Data: {fileID: 21300044, guid: 4eea876403ceb3247bdabd7cdf855383, type: 3}
  - m_RefCount: 1
    m_Data: {fileID: 21300046, guid: 4eea876403ceb3247bdabd7cdf855383, type: 3}
  - m_RefCount: 1
    m_Data: {fileID: 21300048, guid: 4eea876403ceb3247bdabd7cdf855383, type: 3}
  - m_RefCount: 1
    m_Data: {fileID: 21300058, guid: 4eea876403ceb3247bdabd7cdf855383, type: 3}
  - m_RefCount: 1
    m_Data: {fileID: 21300060, guid: 4eea876403ceb3247bdabd7cdf855383, type: 3}
  - m_RefCount: 1
    m_Data: {fileID: 21300062, guid: 4eea876403ceb3247bdabd7cdf855383, type: 3}
  - m_RefCount: 1
    m_Data: {fileID: 21300072, guid: 4eea876403ceb3247bdabd7cdf855383, type: 3}
  - m_RefCount: 1
    m_Data: {fileID: 21300070, guid: 4eea876403ceb3247bdabd7cdf855383, type: 3}
  - m_RefCount: 1
    m_Data: {fileID: 21300074, guid: 4eea876403ceb3247bdabd7cdf855383, type: 3}
  - m_RefCount: 1
    m_Data: {fileID: 21300050, guid: 4eea876403ceb3247bdabd7cdf855383, type: 3}
  - m_RefCount: 1
    m_Data: {fileID: 21300036, guid: 4eea876403ceb3247bdabd7cdf855383, type: 3}
  - m_RefCount: 1
    m_Data: {fileID: 21300042, guid: 4eea876403ceb3247bdabd7cdf855383, type: 3}
  - m_RefCount: 1
    m_Data: {fileID: 21300040, guid: 4eea876403ceb3247bdabd7cdf855383, type: 3}
  - m_RefCount: 1
    m_Data: {fileID: 21300038, guid: 4eea876403ceb3247bdabd7cdf855383, type: 3}
  - m_RefCount: 1
    m_Data: {fileID: 21300052, guid: 4eea876403ceb3247bdabd7cdf855383, type: 3}
  - m_RefCount: 1
    m_Data: {fileID: 21300054, guid: 4eea876403ceb3247bdabd7cdf855383, type: 3}
  - m_RefCount: 1
    m_Data: {fileID: 21300056, guid: 4eea876403ceb3247bdabd7cdf855383, type: 3}
  - m_RefCount: 1
    m_Data: {fileID: 21300076, guid: 4eea876403ceb3247bdabd7cdf855383, type: 3}
  - m_RefCount: 1
    m_Data: {fileID: 21300080, guid: 4eea876403ceb3247bdabd7cdf855383, type: 3}
  - m_RefCount: 1
    m_Data: {fileID: 21300066, guid: 4eea876403ceb3247bdabd7cdf855383, type: 3}
  - m_RefCount: 1
    m_Data: {fileID: 21300064, guid: 4eea876403ceb3247bdabd7cdf855383, type: 3}
  - m_RefCount: 1
    m_Data: {fileID: 21300068, guid: 4eea876403ceb3247bdabd7cdf855383, type: 3}
  - m_RefCount: 1
    m_Data: {fileID: 21300078, guid: 4eea876403ceb3247bdabd7cdf855383, type: 3}
  - m_RefCount: 1
    m_Data: {fileID: 21300082, guid: 4eea876403ceb3247bdabd7cdf855383, type: 3}
  - m_RefCount: 1
    m_Data: {fileID: 21300088, guid: 4eea876403ceb3247bdabd7cdf855383, type: 3}
  - m_RefCount: 1
    m_Data: {fileID: 21300086, guid: 4eea876403ceb3247bdabd7cdf855383, type: 3}
  - m_RefCount: 1
    m_Data: {fileID: 21300092, guid: 4eea876403ceb3247bdabd7cdf855383, type: 3}
  - m_RefCount: 1
    m_Data: {fileID: 21300094, guid: 4eea876403ceb3247bdabd7cdf855383, type: 3}
  - m_RefCount: 1
    m_Data: {fileID: 21300096, guid: 4eea876403ceb3247bdabd7cdf855383, type: 3}
  m_TileMatrixArray:
  - m_RefCount: 32
    m_Data:
      e00: 1
      e01: 0
      e02: 0
      e03: 0
      e10: 0
      e11: 1
      e12: 0
      e13: 0
      e20: 0
      e21: 0
      e22: 1
      e23: 0
      e30: 0
      e31: 0
      e32: 0
      e33: 1
  m_TileColorArray:
  - m_RefCount: 32
    m_Data: {r: 1, g: 1, b: 1, a: 1}
  m_AnimationFrameRate: 1
  m_Color: {r: 1, g: 1, b: 1, a: 1}
  m_Origin: {x: -2, y: -4, z: 0}
  m_Size: {x: 15, y: 6, z: 1}
  m_TileAnchor: {x: 0.5, y: 0.5, z: 0}
  m_TileOrientation: 0
  m_TileOrientationMatrix:
    e00: 1
    e01: 0
    e02: 0
    e03: 0
    e10: 0
    e11: 1
    e12: 0
    e13: 0
    e20: 0
    e21: 0
    e22: 1
    e23: 0
    e30: 0
    e31: 0
    e32: 0
    e33: 1
  m_TileRefreshArray:
  - serializedVersion: 1
    m_DirtyIndex: 0
  - serializedVersion: 1
    m_DirtyIndex: 0
  - serializedVersion: 1
    m_DirtyIndex: 0
  - serializedVersion: 1
    m_DirtyIndex: 0
  - serializedVersion: 1
    m_DirtyIndex: 0
  - serializedVersion: 1
    m_DirtyIndex: 0
  - serializedVersion: 1
    m_DirtyIndex: 0
  - serializedVersion: 1
    m_DirtyIndex: 0
  - serializedVersion: 1
    m_DirtyIndex: 0
  - serializedVersion: 1
    m_DirtyIndex: 0
  - serializedVersion: 1
    m_DirtyIndex: 0
  - serializedVersion: 1
    m_DirtyIndex: 0
  - serializedVersion: 1
    m_DirtyIndex: 0
  - serializedVersion: 1
    m_DirtyIndex: 0
  - serializedVersion: 1
    m_DirtyIndex: 0
  - serializedVersion: 1
    m_DirtyIndex: 0
  - serializedVersion: 1
    m_DirtyIndex: 0
  - serializedVersion: 1
    m_DirtyIndex: 0
  - serializedVersion: 1
    m_DirtyIndex: 0
  - serializedVersion: 1
    m_DirtyIndex: 0
  - serializedVersion: 1
    m_DirtyIndex: 0
  - serializedVersion: 1
    m_DirtyIndex: 0
  - serializedVersion: 1
    m_DirtyIndex: 0
  - serializedVersion: 1
    m_DirtyIndex: 0
  - serializedVersion: 1
    m_DirtyIndex: 0
  - serializedVersion: 1
    m_DirtyIndex: 0
  - serializedVersion: 1
    m_DirtyIndex: 0
  - serializedVersion: 1
    m_DirtyIndex: 0
  - serializedVersion: 1
    m_DirtyIndex: 0
  - serializedVersion: 1
    m_DirtyIndex: 0
  - serializedVersion: 1
    m_DirtyIndex: 0
  - serializedVersion: 1
    m_DirtyIndex: 0
